How does Kickoff Time Effect College Football? – blog
…
secNslice <- sec25 |>
  filter(time_slot == "Noon") |>
  summarise(
    total_games = n()
  )
  
big25 |>
  mutate(
    game_totals = 66 + 52 + 48,
    late_share = 66 / game_totals,
    noon_share = 48 / game_totals,
    afternoon_share = 52 / game_totals
  )

# A tibble: 166 × 102
     game_id school     conference home_away opponent opponent_conference points
       <dbl> <chr>      <chr>      <chr>     <chr>    <chr>                <dbl>
 1 401752795 Illinois   Big Ten    home      Western… Big South-OVC           52
 2 401752806 Indiana    Big Ten    home      Old Dom… Sun Belt                27
 3 401752799 Iowa       Big Ten    home      UAlbany  CAA                     34
 4 401752797 Maryland   Big Ten    home      Florida… American Athletic       39
 5 401752808 Michigan   Big Ten    home      New Mex… Mountain West           34
 6 401752802 Michigan … Big Ten    home      Western… Mid-American            23
 7 401752793 Minnesota  Big Ten    home      Buffalo  Mid-American            23
 8 401752796 Nebraska   Big Ten    away      Cincinn… Big 12                  20
 9 401752803 Northwest… Big Ten    away      Tulane   American Athletic        3
10 401752677 Ohio State Big Ten    home      Texas    SEC                     14
# ℹ 156 more rows
# ℹ 95 more variables: total_yards <dbl>, net_passing_yards <dbl>,
#   completion_attempts <chr>, passing_tds <dbl>, yards_per_pass <dbl>,
#   passes_intercepted <dbl>, interception_yards <dbl>, interception_tds <dbl>,
#   rushing_attempts <dbl>, rushing_yards <dbl>, rush_tds <dbl>,
#   yards_per_rush_attempt <dbl>, first_downs <dbl>, third_down_eff <chr>,
#   fourth_down_eff <chr>, punt_returns <dbl>, punt_return_yards <dbl>, …

Code

sec25 |>
  mutate(
  game_totals = 63 + 53 + 32,
  late_share = 63 / game_totals * 100,
  noon_share = 32 / game_totals * 100,
  afternoon_share = 53 / game_totals * 100
  )

# A tibble: 148 × 102
     game_id school     conference home_away opponent opponent_conference points
       <dbl> <chr>      <chr>      <chr>     <chr>    <chr>                <dbl>
 1 401752665 Alabama    SEC        away      Florida… ACC                     17
 2 401752666 Arkansas   SEC        home      Alabama… SWAC                    52
 3 401752667 Auburn     SEC        away      Baylor   Big 12                  38
 4 401752668 Florida    SEC        home      Long Is… NEC                     55
 5 401752669 Georgia    SEC        home      Marshall Sun Belt                45
 6 401752670 Kentucky   SEC        home      Toledo   Mid-American            24
 7 401752671 LSU        SEC        away      Clemson  ACC                     17
 8 401752673 Mississip… SEC        away      Souther… Sun Belt                34
 9 401752674 Missouri   SEC        home      Central… UAC                     61
10 401752675 Oklahoma   SEC        home      Illinoi… MVFC                    35
# ℹ 138 more rows
# ℹ 95 more variables: total_yards <dbl>, net_passing_yards <dbl>,
#   completion_attempts <chr>, passing_tds <dbl>, yards_per_pass <dbl>,
#   passes_intercepted <dbl>, interception_yards <dbl>, interception_tds <dbl>,
#   rushing_attempts <dbl>, rushing_yards <dbl>, rush_tds <dbl>,
#   yards_per_rush_attempt <dbl>, first_downs <dbl>, third_down_eff <chr>,
#   fourth_down_eff <chr>, punt_returns <dbl>, punt_return_yards <dbl>, …
…
